Service is started at 12/8/2020 6:12:59 PM
Service is recall at 12/8/2020 6:13:04 PM
Service is recall at 12/8/2020 6:13:09 PM
Service is stopped at 12/8/2020 6:13:14 PM
Service is started at 12/8/2020 6:13:18 PM
Service is recall at 12/8/2020 6:13:23 PM
Service is recall at 12/8/2020 6:13:28 PM
Service is recall at 12/8/2020 6:13:33 PM
Service is recall at 12/8/2020 6:13:38 PM
Service is recall at 12/8/2020 6:13:43 PM
Service is recall at 12/8/2020 6:13:48 PM
Service is recall at 12/8/2020 6:13:53 PM
Service is recall at 12/8/2020 6:13:58 PM
Service is recall at 12/8/2020 6:14:03 PM
Service is recall at 12/8/2020 6:14:08 PM
Service is recall at 12/8/2020 6:14:13 PM
Service is recall at 12/8/2020 6:14:18 PM
Service is recall at 12/8/2020 6:14:23 PM
Service is recall at 12/8/2020 6:14:28 PM
Service is recall at 12/8/2020 6:14:33 PM
Service is recall at 12/8/2020 6:14:38 PM
Service is recall at 12/8/2020 6:14:43 PM
Service is recall at 12/8/2020 6:14:48 PM
Service is recall at 12/8/2020 6:14:53 PM
Service is recall at 12/8/2020 6:14:58 PM
Service is recall at 12/8/2020 6:15:03 PM
Service is recall at 12/8/2020 6:15:08 PM
Service is recall at 12/8/2020 6:15:13 PM
Service is recall at 12/8/2020 6:15:18 PM
Service is recall at 12/8/2020 6:15:23 PM
Service is recall at 12/8/2020 6:15:28 PM
Service is recall at 12/8/2020 6:15:33 PM
Service is recall at 12/8/2020 6:15:38 PM
Service is recall at 12/8/2020 6:15:43 PM
Service is recall at 12/8/2020 6:15:48 PM
Service is recall at 12/8/2020 6:15:53 PM
Service is recall at 12/8/2020 6:15:58 PM
Service is recall at 12/8/2020 6:16:03 PM
Service is recall at 12/8/2020 6:16:08 PM
Service is recall at 12/8/2020 6:16:13 PM
Service is recall at 12/8/2020 6:16:18 PM
Service is recall at 12/8/2020 6:16:23 PM
Service is recall at 12/8/2020 6:16:28 PM
Service is recall at 12/8/2020 6:16:33 PM
Service is recall at 12/8/2020 6:16:38 PM
Service is recall at 12/8/2020 6:16:43 PM
Service is recall at 12/8/2020 6:16:48 PM
Service is recall at 12/8/2020 6:16:53 PM
Service is recall at 12/8/2020 6:16:58 PM
Service is recall at 12/8/2020 6:17:03 PM
Service is recall at 12/8/2020 6:17:08 PM
Service is recall at 12/8/2020 6:17:13 PM
Service is recall at 12/8/2020 6:17:18 PM
Service is recall at 12/8/2020 6:17:23 PM
Service is recall at 12/8/2020 6:17:28 PM
Service is recall at 12/8/2020 6:17:33 PM
Service is recall at 12/8/2020 6:17:38 PM
Service is recall at 12/8/2020 6:17:43 PM
Service is recall at 12/8/2020 6:17:48 PM
Service is recall at 12/8/2020 6:17:53 PM
Service is recall at 12/8/2020 6:17:58 PM
Service is recall at 12/8/2020 6:18:03 PM
Service is recall at 12/8/2020 6:18:08 PM
Service is recall at 12/8/2020 6:18:13 PM
Service is recall at 12/8/2020 6:18:18 PM
Service is recall at 12/8/2020 6:18:23 PM
Service is recall at 12/8/2020 6:18:28 PM
Service is recall at 12/8/2020 6:18:33 PM
Service is recall at 12/8/2020 6:18:38 PM
Service is recall at 12/8/2020 6:18:43 PM
Service is recall at 12/8/2020 6:18:48 PM
Service is recall at 12/8/2020 6:18:53 PM
Service is recall at 12/8/2020 6:18:58 PM
Service is recall at 12/8/2020 6:19:03 PM
Service is recall at 12/8/2020 6:19:08 PM
Service is recall at 12/8/2020 6:19:13 PM
Service is recall at 12/8/2020 6:19:18 PM
Service is recall at 12/8/2020 6:19:23 PM
Service is recall at 12/8/2020 6:19:28 PM
Service is recall at 12/8/2020 6:19:33 PM
Service is recall at 12/8/2020 6:19:38 PM
Service is recall at 12/8/2020 6:19:43 PM
Service is recall at 12/8/2020 6:19:48 PM
Service is recall at 12/8/2020 6:19:53 PM
Service is recall at 12/8/2020 6:19:58 PM
Service is recall at 12/8/2020 6:20:03 PM
Service is recall at 12/8/2020 6:20:08 PM
Service is recall at 12/8/2020 6:20:13 PM
Service is recall at 12/8/2020 6:20:18 PM
Service is recall at 12/8/2020 6:20:23 PM
Service is recall at 12/8/2020 6:20:28 PM
Service is recall at 12/8/2020 6:20:33 PM
Service is recall at 12/8/2020 6:20:38 PM
Service is recall at 12/8/2020 6:20:43 PM
Service is recall at 12/8/2020 6:20:48 PM
Service is recall at 12/8/2020 6:20:53 PM
Service is recall at 12/8/2020 6:20:58 PM
Service is recall at 12/8/2020 6:21:03 PM
Service is recall at 12/8/2020 6:21:08 PM
Service is recall at 12/8/2020 6:21:13 PM
Service is recall at 12/8/2020 6:21:18 PM
Service is recall at 12/8/2020 6:21:23 PM
Service is recall at 12/8/2020 6:21:28 PM
Service is recall at 12/8/2020 6:21:33 PM
Service is recall at 12/8/2020 6:21:38 PM
Service is recall at 12/8/2020 6:21:43 PM
Service is recall at 12/8/2020 6:21:48 PM
Service is recall at 12/8/2020 6:21:53 PM
Service is recall at 12/8/2020 6:21:58 PM
Service is recall at 12/8/2020 6:22:03 PM
Service is recall at 12/8/2020 6:22:08 PM
Service is recall at 12/8/2020 6:22:13 PM
Service is recall at 12/8/2020 6:22:18 PM
Service is recall at 12/8/2020 6:22:23 PM
Service is recall at 12/8/2020 6:22:28 PM
Service is recall at 12/8/2020 6:22:33 PM
Service is recall at 12/8/2020 6:22:38 PM
Service is recall at 12/8/2020 6:22:43 PM
Service is recall at 12/8/2020 6:22:48 PM
Service is recall at 12/8/2020 6:22:53 PM
Service is recall at 12/8/2020 6:22:58 PM
Service is recall at 12/8/2020 6:23:03 PM
Service is recall at 12/8/2020 6:23:08 PM
Service is recall at 12/8/2020 6:23:13 PM
Service is recall at 12/8/2020 6:23:18 PM
Service is recall at 12/8/2020 6:23:23 PM
Service is recall at 12/8/2020 6:23:28 PM
Service is recall at 12/8/2020 6:23:33 PM
Service is recall at 12/8/2020 6:23:38 PM
Service is recall at 12/8/2020 6:23:43 PM
Service is recall at 12/8/2020 6:23:48 PM
Service is recall at 12/8/2020 6:23:53 PM
Service is stopped at 12/8/2020 6:23:57 PM
