select top 1 COMPANYCODE from tblCompany
Source Database Connected!
Source Database Connected!
select RowID,DeviceID,UserID,AttState,VerifyMode,WorkCode,tblcompany.COMPANYCODE,(convert(varchar(10),convert(datetime,AttDateTime,103),103)+' '+convert(varchar(10),convert(datetime,AttDateTime,108),108))AttDateTime,(convert(varchar(10),convert(datetime,UpdateedOn,103),103)+' '+convert(varchar(10),convert(datetime,UpdateedOn,108),108))UpdateedOn,CTemp,FTemp,MaskStatus,IsAbnomal,LImage,TImage,io_workcode,verify_mode,io_mode,Upload,TransferFlag,DepartmentName JobCode,tblcompany.COMPANYNAME from UserAttendance,tblcompany,tblmachine,tblDepartment where deviceID=SerialNumber and tblcompany.companycode=tblmachine.companycode AND tblDepartment.DepartmentCode=branch and TransferFlag='N'
Source Database Connected!
