Service is started at 12/5/2020 4:41:49 PM
Service is recall at 12/5/2020 4:41:54 PM
Service is recall at 12/5/2020 4:41:59 PM
Service is recall at 12/5/2020 4:42:04 PM
Service is stopped at 12/5/2020 4:42:06 PM
Service is started at 12/5/2020 5:23:48 PM
Service is recall at 12/5/2020 5:23:53 PM
Service is stopped at 12/5/2020 5:23:57 PM
