Source Database Connected!
Source Database Connected!
Source Database Connected!
Source Database Connected!
Source Database Connected!
Source Database Connected!
Error:- Cannot insert the value NULL into column 'ID_NO', table 'LMS.dbo.tblMachine'; column does not allow nulls. INSERT fails.
The statement has been terminated.
Machine with ID 1 added in tblMachine
Error:- Cannot insert the value NULL into column 'ID_NO', table 'LMS.dbo.tblMachine'; column does not allow nulls. INSERT fails.
The statement has been terminated.
Machine with ID 2 added in tblMachine
Error:- Cannot insert the value NULL into column 'ID_NO', table 'LMS.dbo.tblMachine'; column does not allow nulls. INSERT fails.
The statement has been terminated.
Machine with ID 3 added in tblMachine
Source Database Connected!
Source Database Connected!
Source Database Connected!
Machine with ID 1 added in tblMachine
Machine with ID 2 added in tblMachine
Machine with ID 3 added in tblMachine
